v -0.05000000075 0 0
v -0.04997257143 -0.0002885710855 0
l 1 2
v -0.04997257143 -0.0002885710855 0.3000000119
v -0.05000000075 0 0.3000000119
l 3 4
v -0.04989720136 -0.0005633609253 0.3000000119
v -0.04997257143 -0.0002885710855 0.3000000119
l 5 6
v -0.04997257143 -0.0002885710855 0
v -0.04989720136 -0.0005633609253 0
l 7 8
v -0.04975882918 -0.0008566873148 0.3000000119
v -0.04989720136 -0.0005633609253 0.3000000119
l 9 10
v -0.04989720136 -0.0005633609253 0
v -0.04975882918 -0.0008566873148 0
l 11 12
v -0.04955593124 -0.001153151039 0.3000000119
v -0.04975882918 -0.0008566873148 0.3000000119
l 13 14
v -0.04975882918 -0.0008566873148 0
v -0.04955593124 -0.001153151039 0
l 15 16
v -0.04928151891 -0.001454893034 0.3000000119
v -0.04955593124 -0.001153151039 0.3000000119
l 17 18
v -0.04955593124 -0.001153151039 0
v -0.04928151891 -0.001454893034 0
l 19 20
v -0.04892874137 -0.00175995403 0.3000000119
v -0.04928151891 -0.001454893034 0.3000000119
l 21 22
v -0.04928151891 -0.001454893034 0
v -0.04892874137 -0.00175995403 0
l 23 24
v -0.04847855866 -0.002075934084 0.3000000119
v -0.04892874137 -0.00175995403 0.3000000119
l 25 26
v -0.04892874137 -0.00175995403 0
v -0.04847855866 -0.002075934084 0
l 27 28
v -0.04791045934 -0.002407016931 0.3000000119
v -0.04847855866 -0.002075934084 0.3000000119
l 29 30
v -0.04847855866 -0.002075934084 0
v -0.04791045934 -0.002407016931 0
l 31 32
v -0.04733886942 -0.002690375084 0.3000000119
v -0.04791045934 -0.002407016931 0.3000000119
l 33 34
v -0.04791045934 -0.002407016931 0
v -0.04733886942 -0.002690375084 0
l 35 36
v -0.04655436054 -0.003022044897 0.3000000119
v -0.04733886942 -0.002690375084 0.3000000119
l 37 38
v -0.04733886942 -0.002690375084 0
v -0.04655436054 -0.003022044897 0
l 39 40
v -0.04560872167 -0.003361534094 0.3000000119
v -0.04655436054 -0.003022044897 0.3000000119
l 41 42
v -0.04655436054 -0.003022044897 0
v -0.04560872167 -0.003361534094 0
l 43 44
v -0.0444849506 -0.003705302021 0.3000000119
v -0.04560872167 -0.003361534094 0.3000000119
l 45 46
v -0.04560872167 -0.003361534094 0
v -0.0444849506 -0.003705302021 0
l 47 48
v -0.04320646077 -0.004037315026 0.3000000119
v -0.0444849506 -0.003705302021 0.3000000119
l 49 50
v -0.0444849506 -0.003705302021 0
v -0.04320646077 -0.004037315026 0
l 51 52
v -0.04172167182 -0.004364457913 0.3000000119
v -0.04320646077 -0.004037315026 0.3000000119
l 53 54
v -0.04320646077 -0.004037315026 0
v -0.04172167182 -0.004364457913 0
l 55 56
v -0.04005362839 -0.004673693795 0.3000000119
v -0.04172167182 -0.004364457913 0.3000000119
l 57 58
v -0.04172167182 -0.004364457913 0
v -0.04005362839 -0.004673693795 0
l 59 60
v -0.03817553818 -0.004963769112 0.3000000119
v -0.04005362839 -0.004673693795 0.3000000119
l 61 62
v -0.04005362839 -0.004673693795 0
v -0.03817553818 -0.004963769112 0
l 63 64
v -0.03609190136 -0.005227567162 0.3000000119
v -0.03817553818 -0.004963769112 0.3000000119
l 65 66
v -0.03817553818 -0.004963769112 0
v -0.03609190136 -0.005227567162 0
l 67 68
v -0.03379302844 -0.005460589193 0.3000000119
v -0.03609190136 -0.005227567162 0.3000000119
l 69 70
v -0.03609190136 -0.005227567162 0
v -0.03379302844 -0.005460589193 0
l 71 72
v -0.03148958832 -0.005643073004 0.3000000119
v -0.03379302844 -0.005460589193 0.3000000119
l 73 74
v -0.03379302844 -0.005460589193 0
v -0.03148958832 -0.005643073004 0
l 75 76
v -0.02918313071 -0.005782234017 0.3000000119
v -0.03148958832 -0.005643073004 0.3000000119
l 77 78
v -0.03148958832 -0.005643073004 0
v -0.02918313071 -0.005782234017 0
l 79 80
v -0.02687470056 -0.005883622915 0.3000000119
v -0.02918313071 -0.005782234017 0.3000000119
l 81 82
v -0.02918313071 -0.005782234017 0
v -0.02687470056 -0.005883622915 0
l 83 84
v -0.02379498072 -0.005967617966 0.3000000119
v -0.02687470056 -0.005883622915 0.3000000119
l 85 86
v -0.02687470056 -0.005883622915 0
v -0.02379498072 -0.005967617966 0
l 87 88
v -0.02071429975 -0.006000611 0.3000000119
v -0.02379498072 -0.005967617966 0.3000000119
l 89 90
v -0.02379498072 -0.005967617966 0
v -0.02071429975 -0.006000611 0
l 91 92
v -0.01763344929 -0.005989329889 0.3000000119
v -0.02071429975 -0.006000611 0.3000000119
l 93 94
v -0.02071429975 -0.006000611 0
v -0.01763344929 -0.005989329889 0
l 95 96
v -0.01455300022 -0.005939045921 0.3000000119
v -0.01763344929 -0.005989329889 0.3000000119
l 97 98
v -0.01763344929 -0.005989329889 0
v -0.01455300022 -0.005939045921 0
l 99 100
v -0.01147328038 -0.005854654126 0.3000000119
v -0.01455300022 -0.005939045921 0.3000000119
l 101 102
v -0.01455300022 -0.005939045921 0
v -0.01147328038 -0.005854654126 0
l 103 104
v -0.007368532941 -0.005695478059 0.3000000119
v -0.01147328038 -0.005854654126 0.3000000119
l 105 106
v -0.01147328038 -0.005854654126 0
v -0.007368532941 -0.005695478059 0
l 107 108
v -0.003676343942 -0.005507371854 0.3000000119
v -0.007368532941 -0.005695478059 0.3000000119
l 109 110
v -0.007368532941 -0.005695478059 0
v -0.003676343942 -0.005507371854 0
l 111 112
v 0.001153185964 -0.005245637149 0.3000000119
v -0.003676343942 -0.005507371854 0.3000000119
l 113 114
v -0.003676343942 -0.005507371854 0
v 0.001153185964 -0.005245637149 0
l 115 116
v 0.003636325942 -0.005062935874 0.3000000119
v 0.001153185964 -0.005245637149 0.3000000119
l 117 118
v 0.001153185964 -0.005245637149 0
v 0.003636325942 -0.005062935874 0
l 119 120
v 0.006822641008 -0.004811934195 0.3000000119
v 0.003636325942 -0.005062935874 0.3000000119
l 121 122
v 0.003636325942 -0.005062935874 0
v 0.006822641008 -0.004811934195 0
l 123 124
v 0.01000910997 -0.004564135801 0.3000000119
v 0.006822641008 -0.004811934195 0.3000000119
l 125 126
v 0.006822641008 -0.004811934195 0
v 0.01000910997 -0.004564135801 0
l 127 128
v 0.01509031001 -0.004124665167 0.3000000119
v 0.01000910997 -0.004564135801 0.3000000119
l 129 130
v 0.01000910997 -0.004564135801 0
v 0.01509031001 -0.004124665167 0
l 131 132
v 0.01991247945 -0.003672383958 0.3000000119
v 0.01509031001 -0.004124665167 0.3000000119
l 133 134
v 0.01509031001 -0.004124665167 0
v 0.01991247945 -0.003672383958 0
l 135 136
v 0.02556568012 -0.003101191018 0.3000000119
v 0.01991247945 -0.003672383958 0.3000000119
l 137 138
v 0.01991247945 -0.003672383958 0
v 0.02556568012 -0.003101191018 0
l 139 140
v 0.03121444955 -0.0024876229 0.3000000119
v 0.02556568012 -0.003101191018 0.3000000119
l 141 142
v 0.02556568012 -0.003101191018 0
v 0.03121444955 -0.0024876229 0
l 143 144
v 0.03685852885 -0.001832006034 0.3000000119
v 0.03121444955 -0.0024876229 0.3000000119
l 145 146
v 0.03121444955 -0.0024876229 0
v 0.03685852885 -0.001832006034 0
l 147 148
v 0.04249681905 -0.001131223049 0.3000000119
v 0.03685852885 -0.001832006034 0.3000000119
l 149 150
v 0.03685852885 -0.001832006034 0
v 0.04249681905 -0.001131223049 0
l 151 152
v 0.04455791041 -0.0008669496747 0.3000000119
v 0.04249681905 -0.001131223049 0.3000000119
l 153 154
v 0.04249681905 -0.001131223049 0
v 0.04455791041 -0.0008669496747 0
l 155 156
v 0.04756592959 -0.0004597629013 0.3000000119
v 0.04455791041 -0.0008669496747 0.3000000119
l 157 158
v 0.04455791041 -0.0008669496747 0
v 0.04756592959 -0.0004597629013 0
l 159 160
v 0.04832667857 -0.0003569480905 0.3000000119
v 0.04756592959 -0.0004597629013 0.3000000119
l 161 162
v 0.04756592959 -0.0004597629013 0
v 0.04832667857 -0.0003569480905 0
l 163 164
v 0.04895428941 -0.000278635096 0.3000000119
v 0.04832667857 -0.0003569480905 0.3000000119
l 165 166
v 0.04832667857 -0.0003569480905 0
v 0.04895428941 -0.000278635096 0
l 167 168
v 0.04944226891 -0.0001939173962 0.3000000119
v 0.04895428941 -0.000278635096 0.3000000119
l 169 170
v 0.04895428941 -0.000278635096 0
v 0.04944226891 -0.0001939173962 0
l 171 172
v 0.04969218001 -0.0001774203993 0.3000000119
v 0.04944226891 -0.0001939173962 0.3000000119
l 173 174
v 0.04944226891 -0.0001939173962 0
v 0.04969218001 -0.0001774203993 0
l 175 176
v 0.04986128956 -0.0001516256016 0.3000000119
v 0.04969218001 -0.0001774203993 0.3000000119
l 177 178
v 0.04969218001 -0.0001774203993 0
v 0.04986128956 -0.0001516256016 0
l 179 180
v 0.04995534942 -0.0001154357014 0.3000000119
v 0.04986128956 -0.0001516256016 0.3000000119
l 181 182
v 0.04986128956 -0.0001516256016 0
v 0.04995534942 -0.0001154357014 0
l 183 184
v 0.05003105849 -6.638647756e-05 0.3000000119
v 0.04995534942 -0.0001154357014 0.3000000119
l 185 186
v 0.04995534942 -0.0001154357014 0
v 0.05003105849 -6.638647756e-05 0
l 187 188
v 0.05009999871 0 0
v 0.05009999871 0 0.3000000119
l 189 190
v 0.05009999871 0 0.3000000119
v 0.05003105849 -6.638647756e-05 0.3000000119
l 191 192
v 0.05003105849 -6.638647756e-05 0
v 0.05009999871 0 0
l 193 194
v 0.05009999871 0 0
v 0.05001297966 8.009297744e-05 0
l 195 196
v 0.05001297966 8.009297744e-05 0.3000000119
v 0.05009999871 0 0.3000000119
l 197 198
v 0.04991554841 0.0001335341949 0.3000000119
v 0.05001297966 8.009297744e-05 0.3000000119
l 199 200
v 0.05001297966 8.009297744e-05 0
v 0.04991554841 0.0001335341949 0
l 201 202
v 0.04983896017 0.0001572572946 0.3000000119
v 0.04991554841 0.0001335341949 0.3000000119
l 203 204
v 0.04991554841 0.0001335341949 0
v 0.04983896017 0.0001572572946 0
l 205 206
v 0.04937357083 0.0002016896033 0.3000000119
v 0.04983896017 0.0001572572946 0.3000000119
l 207 208
v 0.04983896017 0.0001572572946 0
v 0.04937357083 0.0002016896033 0
l 209 210
v 0.04876932129 0.0003085923963 0.3000000119
v 0.04937357083 0.0002016896033 0.3000000119
l 211 212
v 0.04937357083 0.0002016896033 0
v 0.04876932129 0.0003085923963 0
l 213 214
v 0.04796040058 0.0003998489119 0.3000000119
v 0.04876932129 0.0003085923963 0.3000000119
l 215 216
v 0.04876932129 0.0003085923963 0
v 0.04796040058 0.0003998489119 0
l 217 218
v 0.0469320789 0.0005544645828 0.3000000119
v 0.04796040058 0.0003998489119 0.3000000119
l 219 220
v 0.04796040058 0.0003998489119 0
v 0.0469320789 0.0005544645828 0
l 221 222
v 0.04341192171 0.001013820991 0.3000000119
v 0.0469320789 0.0005544645828 0.3000000119
l 223 224
v 0.0469320789 0.0005544645828 0
v 0.04341192171 0.001013820991 0
l 225 226
v 0.04341192171 0.001013820991 0
v 0.04079271853 0.001349159982 0
l 227 228
v 0.04079271853 0.001349159982 0.3000000119
v 0.04341192171 0.001013820991 0.3000000119
l 229 230
v 0.03715864941 0.001795929973 0.3000000119
v 0.04079271853 0.001349159982 0.3000000119
l 231 232
v 0.04079271853 0.001349159982 0
v 0.03715864941 0.001795929973 0
l 233 234
v 0.03715864941 0.001795929973 0
v 0.03070132062 0.002545092953 0
l 235 236
v 0.03070132062 0.002545092953 0.3000000119
v 0.03715864941 0.001795929973 0.3000000119
l 237 238
v 0.0251970198 0.003139751032 0.3000000119
v 0.03070132062 0.002545092953 0.3000000119
l 239 240
v 0.03070132062 0.002545092953 0
v 0.0251970198 0.003139751032 0
l 241 242
v 0.0251970198 0.003139751032 0
v 0.0196885094 0.003694087034 0
l 243 244
v 0.0196885094 0.003694087034 0.3000000119
v 0.0251970198 0.003139751032 0.3000000119
l 245 246
v 0.01417590957 0.004206176847 0.3000000119
v 0.0196885094 0.003694087034 0.3000000119
l 247 248
v 0.0196885094 0.003694087034 0
v 0.01417590957 0.004206176847 0
l 249 250
v 0.01417590957 0.004206176847 0
v 0.008659323677 0.004673529882 0
l 251 252
v 0.008659323677 0.004673529882 0.3000000119
v 0.01417590957 0.004206176847 0.3000000119
l 253 254
v 0.003691473976 0.005058378913 0.3000000119
v 0.008659323677 0.004673529882 0.3000000119
l 255 256
v 0.008659323677 0.004673529882 0
v 0.003691473976 0.005058378913 0
l 257 258
v 0.003691473976 0.005058378913 0
v 0.001207069959 0.00524233887 0
l 259 260
v 0.001207069959 0.00524233887 0.3000000119
v 0.003691473976 0.005058378913 0.3000000119
l 261 262
v -0.005911089946 0.005628076848 0.3000000119
v 0.001207069959 0.00524233887 0.3000000119
l 263 264
v 0.001207069959 0.00524233887 0
v -0.005911089946 0.005628076848 0
l 265 266
v -0.005911089946 0.005628076848 0
v -0.01056443993 0.005823257845 0
l 267 268
v -0.01056443993 0.005823257845 0.3000000119
v -0.005911089946 0.005628076848 0.3000000119
l 269 270
v -0.01441998966 0.005936095025 0.3000000119
v -0.01056443993 0.005823257845 0.3000000119
l 271 272
v -0.01056443993 0.005823257845 0
v -0.01441998966 0.005936095025 0
l 273 274
v -0.01441998966 0.005936095025 0
v -0.01827673055 0.005995094776 0
l 275 276
v -0.01827673055 0.005995094776 0.3000000119
v -0.01441998966 0.005936095025 0.3000000119
l 277 278
v -0.02174822055 0.005994771142 0.3000000119
v -0.01827673055 0.005995094776 0.3000000119
l 279 280
v -0.01827673055 0.005995094776 0
v -0.02174822055 0.005994771142 0
l 281 282
v -0.02487215027 0.005944426171 0.3000000119
v -0.02174822055 0.005994771142 0.3000000119
l 283 284
v -0.02174822055 0.005994771142 0
v -0.02487215027 0.005944426171 0
l 285 286
v -0.02799469978 0.005838856101 0.3000000119
v -0.02487215027 0.005944426171 0.3000000119
l 287 288
v -0.02487215027 0.005944426171 0
v -0.02799469978 0.005838856101 0
l 289 290
v -0.02799469978 0.005838856101 0
v -0.03080260009 0.005688790232 0
l 291 292
v -0.03080260009 0.005688790232 0.3000000119
v -0.02799469978 0.005838856101 0.3000000119
l 293 294
v -0.03332636878 0.005501407199 0.3000000119
v -0.03080260009 0.005688790232 0.3000000119
l 295 296
v -0.03080260009 0.005688790232 0
v -0.03332636878 0.005501407199 0
l 297 298
v -0.03559350967 0.005282865837 0.3000000119
v -0.03332636878 0.005501407199 0.3000000119
l 299 300
v -0.03332636878 0.005501407199 0
v -0.03559350967 0.005282865837 0
l 301 302
v -0.03770167008 0.005028704181 0.3000000119
v -0.03559350967 0.005282865837 0.3000000119
l 303 304
v -0.03559350967 0.005282865837 0
v -0.03770167008 0.005028704181 0
l 305 306
v -0.03961386904 0.00474663591 0.3000000119
v -0.03770167008 0.005028704181 0.3000000119
l 307 308
v -0.03770167008 0.005028704181 0
v -0.03961386904 0.00474663591 0
l 309 310
v -0.04134304076 0.004439565819 0.3000000119
v -0.03961386904 0.00474663591 0.3000000119
l 311 312
v -0.03961386904 0.00474663591 0
v -0.04134304076 0.004439565819 0
l 313 314
v -0.04287619144 0.004114946816 0.3000000119
v -0.04134304076 0.004439565819 0.3000000119
l 315 316
v -0.04134304076 0.004439565819 0
v -0.04287619144 0.004114946816 0
l 317 318
v -0.04424158856 0.003772797063 0.3000000119
v -0.04287619144 0.004114946816 0.3000000119
l 319 320
v -0.04287619144 0.004114946816 0
v -0.04424158856 0.003772797063 0
l 321 322
v -0.04541417956 0.003425192088 0.3000000119
v -0.04424158856 0.003772797063 0.3000000119
l 323 324
v -0.04424158856 0.003772797063 0
v -0.04541417956 0.003425192088 0
l 325 326
v -0.046433229 0.003068688093 0.3000000119
v -0.04541417956 0.003425192088 0.3000000119
l 327 328
v -0.04541417956 0.003425192088 0
v -0.046433229 0.003068688093 0
l 329 330
v -0.046433229 0.003068688093 0
v -0.04729003087 0.002712752903 0
l 331 332
v -0.04729003087 0.002712752903 0.3000000119
v -0.046433229 0.003068688093 0.3000000119
l 333 334
v -0.04798517004 0.002366678091 0.3000000119
v -0.04729003087 0.002712752903 0.3000000119
l 335 336
v -0.04729003087 0.002712752903 0
v -0.04798517004 0.002366678091 0
l 337 338
v -0.04798517004 0.002366678091 0
v -0.04856761172 0.00201806007 0
l 339 340
v -0.04856761172 0.00201806007 0.3000000119
v -0.04798517004 0.002366678091 0.3000000119
l 341 342
v -0.04856761172 0.00201806007 0
v -0.04902824014 0.001680493006 0
l 343 344
v -0.04902824014 0.001680493006 0.3000000119
v -0.04856761172 0.00201806007 0.3000000119
l 345 346
v -0.04902824014 0.001680493006 0
v -0.04937563837 0.001359876012 0
l 347 348
v -0.04937563837 0.001359876012 0.3000000119
v -0.04902824014 0.001680493006 0.3000000119
l 349 350
v -0.04937563837 0.001359876012 0
v -0.04963411018 0.001049590996 0
l 351 352
v -0.04963411018 0.001049590996 0.3000000119
v -0.04937563837 0.001359876012 0.3000000119
l 353 354
v -0.04963411018 0.001049590996 0
v -0.04981645942 0.0007495919126 0
l 355 356
v -0.04981645942 0.0007495919126 0.3000000119
v -0.04963411018 0.001049590996 0.3000000119
l 357 358
v -0.04981645942 0.0007495919126 0
v -0.04993025959 0.0004642446002 0
l 359 360
v -0.04993025959 0.0004642446002 0.3000000119
v -0.04981645942 0.0007495919126 0.3000000119
l 361 362
v -0.04993025959 0.0004642446002 0
v -0.04998124018 0.0002366818953 0
l 363 364
v -0.04998124018 0.0002366818953 0.3000000119
v -0.04993025959 0.0004642446002 0.3000000119
l 365 366
v -0.04998124018 0.0002366818953 0
v -0.05000000075 0 0
l 367 368
v -0.05000000075 0 0.3000000119
v -0.04998124018 0.0002366818953 0.3000000119
l 369 370
